{
  "images" : [
    {
      "idiom" : "universal",
      "scale" : "1x",
      "filename" : "deal_scan_check_in_on.png"
    },
    {
      "idiom" : "universal",
      "scale" : "2x",
      "filename" : "deal_scan_check_in_on-1.png"
    }
  ],
  "info" : {
    "version" : 1,
    "author" : "xcode"
  }
}